{
    "author": "varhoo",
    "author_email": "info@varhoo.cz",
    "repo_group": "{{ cookiecutter.author }}",
    "repo_name": "proj",
    "package_name": "{{ cookiecutter.repo_name | replace('-', '_') }}",
    "_copy_without_render": [
        "*.html",
        "roles/*",
        "apps/*",
        ".coafile",
        "README.md"
    ]
}

